test_run_dir/CNT_should_pass/Counter.vcd
$date
2022-10-30T08:10+0000
$end
$version
0.2
$end
$comment

$end
$timescale 1ns  $end
$scope module Counter $end
 $var wire 8 ! next $end
 $var wire 8 # io_dout $end
 $var wire 1 ( clock $end
 $var wire 1 , reg $end
 $var wire 1 - adder $end
 $var wire 1 . reset $end
  $scope module reg $end
   $var wire 8 $ reg $end
   $var wire 8 & io_q $end
   $var wire 1 ' clock $end
   $var wire 1 * reset $end
   $var wire 8 + io_d $end
  $upscope $end
  $scope module adder $end
   $var wire 8 " io_a $end
   $var wire 8 % io_c $end
   $var wire 8 ) io_b $end
  $upscope $end
$upscope $end
$enddefinitions $end
$dumpvars
b00000000 )
0-
b00000000 !
0'
0.
b00000000 "
b00000000 #
b00000000 $
0(
b00000000 +
0*
b00000000 %
b00000000 &
0,
$end
#0
b00000001 !
b00000001 %
b00000001 "
1.
1*
b00000001 +
#1
1'
1(
#6
0.
0*
0'
0(
#11
b00000010 !
b00000010 %
b00000001 &
b00000001 #
1'
b00000001 $
b00000010 +
1(
b00000001 )
#16
0'
0(
#21
b00000011 !
b00000011 %
b00000010 &
b00000010 #
1'
b00000010 $
b00000011 +
1(
b00000010 )
#26
0'
0(
#31
b00000100 !
b00000100 %
b00000011 &
b00000011 #
1'
b00000011 $
b00000100 +
1(
b00000011 )
#36
0'
0(
#41
b00000101 !
b00000101 %
b00000100 &
b00000100 #
1'
b00000100 $
b00000101 +
1(
b00000100 )
#46
0'
0(
#51
b00000110 !
b00000110 %
b00000101 &
b00000101 #
1'
b00000101 $
b00000110 +
1(
b00000101 )
#56
0'
0(
#61
b00000111 !
b00000111 %
b00000110 &
b00000110 #
1'
b00000110 $
b00000111 +
1(
b00000110 )
#66
0'
0(
#71
b00001000 !
b00001000 %
b00000111 &
b00000111 #
1'
b00000111 $
b00001000 +
1(
b00000111 )
#76
0'
0(
#81
b00001001 !
b00001001 %
b00001000 &
b00001000 #
1'
b00001000 $
b00001001 +
1(
b00001000 )
#86
0'
0(
#91
b00000000 !
b00001010 %
b00001001 &
b00001001 #
1'
b00001001 $
b00000000 +
1(
b00001001 )
#96
0'
0(
#101
b00000001 !
b00000001 %
b00000000 &
b00000000 #
1'
b00000000 $
b00000001 +
1(
b00000000 )
